<?xml version="1.0" encoding="UTF-8"?>
<svg width="256" height="256" version="1.1" viewBox="0 0 256 256" xmlns="http://www.w3.org/2000/svg">
<path transform="matrix(1.657 -.6798 .6834 1.648 270.5 1.266)" d="m-73.95-26.52c-3.321-1.409-47.52 30.62-50.4 32.79-2.881 2.172-45.83 35.85-45.39 39.43.1803 1.466 8.673 6.073 18.83 11.09-1.352 2.276-2.572 4.683-3.621 7.226-1.845 4.527-3.082 9.268-3.669 14.05-.6442 3.419 5.995 9.174 15.45 14.75 6.326 3.854 12.12-3.283 18.71-.5982 6.788 2.801 7.151 12.36 13.03 14.08 8.994 2.344 16.92 2.827 21.16-.03394 2.953-3.803 5.416-8.038 7.3-12.55.9482-2.298 1.724-4.617 2.343-6.937 10.6 3.789 19.72 6.66 20.9 5.776 2.881-2.172-2.757-56.46-3.198-60.04-.4404-3.581-8.126-57.62-11.45-59.03z" fill="#f00" stop-color="#000000" stroke-linejoin="round" stroke-width=".5595" style="fill:#b3b3b3;opacity:.5"/>
<path d="m127.6 65.64a43.31 43.31 0 00-43.31 43.31 43.31 43.31 0 0043.31 43.31 43.31 43.31 0 0043.31-43.31 43.31 43.31 0 00-43.31-43.31zm74.44 70.98c-1.166-.1318-2.312.2692-3.295 1.473-1.019 1.248-3.106 5.574-6.473 11.27a22.76 22.76 0 016.305 15.71 22.76 22.76 0 01-22.76 22.76 22.76 22.76 0 01-14.21-4.98c-9.824 6.277-21.89 10.71-36.63 10.89-13.2.1678-24.06-3.673-32.92-9.326a22.76 22.76 0 01-11.96 3.414 22.76 22.76 0 01-22.76-22.76 22.76 22.76 0 015.428-14.65c-2.244-4.281-3.649-7.479-4.26-8.439-4.505-7.083-14.12-2.815-12.56 6.322.8962 5.254 2.155 79.01 81.25 76.54 79.1-2.461 82.12-76.1 82.07-79.83-.04045-2.797-3.724-7.997-7.223-8.393z" fill="#fff"/>
</svg>
